<?xml version="1.0" encoding="utf-8"?>
<!-- Generator: Adobe Illustrator 22.0.0, SVG Export Plug-In . SVG Version: 6.00 Build 0)  -->
<svg version="1.1" id="Calque_1" xmlns="http://www.w3.org/2000/svg" xmlns:xlink="http://www.w3.org/1999/xlink" x="0px" y="0px"
	 viewBox="0 0 500 40.1" style="enable-background:new 0 0 500 40.1;" xml:space="preserve">
<style type="text/css">
	.st0{fill:#FFFFFF;}
	.st1{opacity:0.1;fill:#FFFFFF;}
	.st2{opacity:0.2;fill:#FFFFFF;}
</style>
<g>
	<path class="st0" d="M39.5,39.2l-4-10.4H17.8l-4,10.4h-5L23.6-0.1h6.2l14.8,39.2H39.5z M26.8,5.2h-0.3l-7.2,18.9h14.7L26.8,5.2z"/>
	<path class="st1" d="M84.7,39.4c-1.8,0.1-3.4,0.2-4.9,0.2c-4.7,0-8.2-0.5-10.3-1.5c-2.2-1-3.6-2.9-4.4-5.6c-0.7-2.7-1.1-7-1.1-12.9
		c0-5.9,0.4-10.2,1.1-12.9C65.9,3.9,67.3,2,69.5,1c2.2-1,5.6-1.5,10.3-1.5c1.6,0,3.2,0.1,4.9,0.2c1.7,0.2,3.1,0.4,4.2,0.6v4.3
		C86.1,4.2,83.5,4,81.1,4c-4,0-6.8,0.3-8.4,0.9c-1.6,0.6-2.6,1.9-3.1,3.9c-0.5,2-0.7,5.6-0.7,10.7c0,5.1,0.2,8.7,0.7,10.7
		c0.5,2,1.5,3.3,3.1,3.9c1.6,0.6,4.4,0.9,8.4,0.9c2.9,0,5.6-0.2,8.1-0.6v4.4C88,39.1,86.5,39.3,84.7,39.4z"/>
	<path class="st0" d="M111.5,39.2V-0.1h4.9v34.5h18.3v4.7H111.5z"/>
	<path class="st2" d="M155.6,39.2V-0.1h4.9v34.5h18.3v4.7H155.6z"/>
	<path class="st0" d="M199.7-0.1h17.2c3.2,0,5.6,0.5,7.2,1.5c1.6,1,2.7,2.4,3.3,4.2c0.5,1.7,0.8,4,0.8,6.8c0,2.7-0.3,4.9-0.8,6.6
		c-0.5,1.8-1.6,3.2-3.3,4.2c-1.7,1.1-4.1,1.6-7.3,1.6h-12.2v14.3h-4.9V-0.1z M215.2,20.3c2.5,0,4.3-0.3,5.4-0.8
		c1.1-0.5,1.9-1.3,2.2-2.4c0.3-1.1,0.5-2.7,0.5-4.8c0-2.1-0.2-3.7-0.5-4.8c-0.3-1.1-1-1.9-2.2-2.4c-1.1-0.5-2.9-0.8-5.4-0.8h-10.7
		v15.9H215.2z"/>
	<path class="st2" d="M254,38.1c-2.2-1-3.5-2.8-4.1-5.4c-0.6-2.6-0.9-6.9-0.9-13.1c0-6.2,0.3-10.6,0.9-13.1c0.6-2.6,2-4.4,4.1-5.4
		c2.2-1,5.9-1.5,11.1-1.5c5.2,0,8.8,0.5,11,1.5c2.2,1,3.6,2.8,4.2,5.4c0.6,2.6,0.9,7,0.9,13.1c0,6.2-0.3,10.6-0.9,13.1
		c-0.6,2.6-2,4.4-4.2,5.4c-2.2,1-5.9,1.5-11,1.5C259.9,39.6,256.2,39.1,254,38.1z M272.9,34.3c1.4-0.5,2.3-1.7,2.7-3.7
		c0.4-2,0.6-5.7,0.6-11.1c0-5.4-0.2-9.1-0.6-11.1c-0.4-2-1.3-3.2-2.7-3.7c-1.4-0.5-4-0.7-7.9-0.7s-6.5,0.2-7.9,0.7
		c-1.4,0.5-2.3,1.7-2.7,3.7c-0.4,2-0.6,5.7-0.6,11.1c0,5.4,0.2,9.1,0.6,11.1c0.4,2,1.3,3.2,2.7,3.7c1.4,0.5,4,0.7,7.9,0.7
		S271.6,34.8,272.9,34.3z"/>
	<path class="st0" d="M330.2,39.2V21.8h-20.6v17.4h-4.9V-0.1h4.9V17h20.6V-0.1h4.8v39.2H330.2z"/>
	<path class="st2" d="M379.2,39.4c-1.8,0.1-3.4,0.2-4.9,0.2c-4.7,0-8.2-0.5-10.3-1.5c-2.2-1-3.6-2.9-4.4-5.6
		c-0.7-2.7-1.1-7-1.1-12.9c0-5.9,0.4-10.2,1.1-12.9c0.7-2.7,2.2-4.6,4.4-5.6c2.2-1,5.6-1.5,10.3-1.5c1.6,0,3.2,0.1,4.9,0.2
		c1.7,0.2,3.1,0.4,4.2,0.6v4.3C380.6,4.2,378,4,375.6,4c-4,0-6.8,0.3-8.4,0.9c-1.6,0.6-2.6,1.9-3.1,3.9c-0.5,2-0.7,5.6-0.7,10.7
		c0,5.1,0.2,8.7,0.7,10.7c0.5,2,1.5,3.3,3.1,3.9c1.6,0.6,4.4,0.9,8.4,0.9c2.9,0,5.6-0.2,8.1-0.6v4.4C382.5,39.1,381,39.3,379.2,39.4
		z"/>
	<path class="st0" d="M432.7,39.2l-4-10.4h-17.7l-4,10.4h-5l14.8-39.2h6.2l14.8,39.2H432.7z M419.9,5.2h-0.3l-7.2,18.9h14.7
		L419.9,5.2z"/>
	<path class="st2" d="M483.8,39.2l-13.3-17.7h-7.1v17.7h-4.9V-0.1h4.9v17h7.1l13.4-17h5.5l-14.9,19l15.1,20.2H483.8z"/>
</g>
</svg>
