<?xml version="1.0" encoding="utf-8"?>
<!-- Generator: Adobe Illustrator 22.0.0, SVG Export Plug-In . SVG Version: 6.00 Build 0)  -->
<svg version="1.1" id="Calque_1" xmlns="http://www.w3.org/2000/svg" xmlns:xlink="http://www.w3.org/1999/xlink" x="0px" y="0px"
	 viewBox="0 0 1000 508.9" style="enable-background:new 0 0 1000 508.9;" xml:space="preserve">
<style type="text/css">
	.st0{display:none;fill:#161616;}
	.st1{display:none;fill:#DDB91F;enable-background:new    ;}
	.st2{font-family:'ArialMT';}
	.st3{font-size:60px;}
	.st4{letter-spacing:6;}
	.st5{fill:#FFFFFF;}
</style>
<rect id="XMLID_13_" x="500" y="-694.2" class="st0" width="1000" height="1000"/>
<text id="XMLID_15_" transform="matrix(1 0 0 1 669.6233 46.8361)" class="st1 st2 st3 st4">FLORIAN GUIFFREY</text>
<g>
	<g id="XMLID_14_">
		<ellipse id="XMLID_26_" class="st5" cx="567.2" cy="396.9" rx="40.7" ry="65"/>
		<ellipse id="XMLID_25_" class="st5" cx="695" cy="376.4" rx="40.7" ry="65"/>
		<g id="XMLID_16_">
			<path id="XMLID_23_" class="st5" d="M87.2,462.4c-23.5,0-42.6,20.5-42.6,46.5h85.2C129.8,482.9,110.7,462.4,87.2,462.4z"/>
			<path id="XMLID_22_" class="st5" d="M156.2,462.4c-23.5,0-42.6,20.5-42.6,46.5h85.2C198.8,482.9,179.8,462.4,156.2,462.4z"/>
			<path id="XMLID_21_" class="st5" d="M210.7,470.2c-19.6,0-35.4,16.7-35.4,38.7h70.8C246.2,486.9,230.3,470.2,210.7,470.2z"/>
			<path id="XMLID_20_" class="st5" d="M823.3,462.4c23.5,0,42.6,20.5,42.6,46.5h-85.2C780.7,482.9,799.8,462.4,823.3,462.4z"/>
			<path id="XMLID_19_" class="st5" d="M754.3,462.4c23.5,0,42.6,20.5,42.6,46.5h-85.2C711.7,482.9,730.7,462.4,754.3,462.4z"/>
			<path id="XMLID_17_" class="st5" d="M699.8,470.2c19.6,0,35.4,15.7,35.4,38.7h-70.8C664.4,485.9,680.2,470.2,699.8,470.2z"/>
		</g>
	</g>
	<path id="XMLID_18_" class="st5" d="M137.2,344.8c12.7-60.3,43.1-231.4,283.1-302.2c304.8-89.8,316.8,104.3,316.8,104.3
		S987,73.4,950.3,104.7c-13.3,11.3-72.1,60.5-163.9,98.6c-85.2,35.4-271,64.1-354.3,103.9C300,370.3,118.6,484.1,118.6,484.1
		S129.9,379.6,137.2,344.8z"/>
</g>
</svg>
